Type	Priority	Fail Chance	Actor Race	Target Race	Text	Conditional	Success	Notes
Shower		0.6	Demi-Tiger		[ActorName] quietly rinses their thick [TargetHairColor] fur as the hot water runs down their body.			
Rest		0.3	Demi-Tiger		[ActorName] gently snores as they dream of hot springs and snow.			
EatFood			Demi-Tiger		[ActorName] doesn't even utter a word as they sink their sharp jaws into a number of meat-based meals.			
EatFood	300		Demi-Tiger		[ActorName] glances wearily at the people nearby as they bite huge chunks out of a meaty meal.	s.Actor.Needs.Hunger > .5f		
FinishDigestion		0.4	Demi-Tiger		[ActorName] skiffles a small burp as they rub their slightly bloated middle, knowing that their meal is gone.			
GrewBigger		0.3	Demi-Tiger		[ActorName]'s tail sways gently as they feel their assets grow just a little bigger.			
Meet		0.15	Demi-Tiger	Demi-Tiger	[TargetName] and [ActorName] silently stare at each other, making a quiet agreement to stay out of each other's way.			
Meet		0.15	Demi-Tiger		[ActorName] simply stares at [TargetName], nodding as they introduce themselves, quietly replying with their own name.			
Flirt		0.2	Demi-Tiger		[ActorName] tenses and flexes their muscular body, trying to attract [TargetName]'s attention.		Yes	
Flirt		0.2	Demi-Tiger		[ActorName] doesn't even utter a word as they point at [TargetName]'s crotch, licking their lips. [TargetHasDick]		Yes	
Flirt		0.2	Demi-Tiger		[ActorName] leers over [TargetName], pushing them against the wall with a small smile.		Yes	
Hug		0.2		Demi-Tiger	[ActorName] bravely walks up and hugs [TargetName], the Tiger quietly enjoying the attention.			
Hug		0.2	Demi-Tiger		[TargetName] is suddenly lifted up into a tight, fuzzy, warm hugs as [ActorName] crushes them with warmth.			
Compliment		0.3		Demi-Tiger	[ActorName] assures [TargetName] that they look big and intimidating.		Yes	
Compliment		0.3	Demi-Tiger		[ActorName] quietly tells [TargetName] that they don't look like prey as much as some others here.		Yes	
Compliment		0.3	Demi-Tiger	Demi-Tiger	[ActorName] compliments [TargetName]'s ability to control territory.		Yes	
Insult		0.5	Demi-Tiger		[ActorName] menacingly tells [TargetName] that they'll be the first one they eat should they get hungry.			
Taste			Demi-Tiger		[ActorName] slowly and tenderly brings their rough tongue across [TargetName]'s face, their small smile confirming the good taste.		Yes	
Taste			Demi-Tiger		[TargetName] yelps as [ActorName] puts their hand in their mouth, nibbling on it until they pull away with a slim smile.		Yes	
PreyWillingYell		0.25		Demi-Tiger	[ActorName] squirms gleefully within [TargetName]'s crushing depths, happy to be food for a true pred.	[TargetDigestsPrey]		
PreyWillingYell		0.5	Demi-Tiger		[TargetName] can hardly hear [ActorName]'s quiet voice inside them, complimenting their predatory skills.	[TargetDigestsPrey]		
PlayfulTeasePrey			Demi-Tiger		[ActorName] Gives their broiling and bloating gut a tight hug, teasing the food inside.	[TargetIsActorPrey] && [ActorDigestsPrey]		
VoreHunger		0.3	Demi-Tiger		[TargetName] suddenly feels a strong pair of arms constricting them, the hot breath of [ActorName] behind them, along with the growling of a gut.	s.Actor.Needs.Hunger>.6f		
VoreHunger		0.6	Demi-Tiger		[TargetName] is suddenly pounced on, pinned to the ground as [ActorName] ravenously bears their fangs.	s.Actor.Needs.Hunger<.4f		
OralBegin		0.3	Demi-Tiger		[TargetName] is grappled by strong arms, quickly getting a view of [ActorName]'s humid and salivating mouth.			
OralBegin		0.25		Demi-Tiger	[TargetName] feels something wet touch their [TargetHairColor] ears, only getting a chance to mutter "They wouldn't dare..." before [ActorName] Begins devouring them.			
CockVoreBegin		0.25	Demi-Tiger		[TargetName] feels a pair of strong and fluffy paws on their shoulders, suddenly being shoved to their knees in front of [ActorName]'s erect cock.			
InStomach			Demi-Tiger		[TargetName] can't help but yell from the bone-crushing pressure of [ActorName]'s gut.	[TargetHealthOkay] && [DisposalBonesEnabled] && [TargetWillingPrey] == false		
InStomach			Demi-Tiger		Despite their best efforts at escape, [TargetName] can hardly stretch [ActorName]'s mighty gut.	[TargetHealthWounded] && [DisposalBonesEnabled] && [TargetWillingPrey] == false		
InStomach			Demi-Tiger		Greatly weakened, [TargetName] can hardly resist the crushing and compacting walls of [ActorName]’s gut around them.	[TargetHealthCritical] && [DisposalBonesEnabled] && [TargetWillingPrey] == false		
InStomach			Demi-Tiger		[TargetName] can't even move, weakened from the strength of [ActorName]'s gut and the other prey on top of them.	[TargetHealthCritical] && [ActorHasLivingBellyPrey] && [DisposalBonesEnabled] && [TargetWillingPrey] == false		
InStomach			Demi-Tiger		[ActorName] seems unbothered by the bony imprints in their swollen midsection, nor the occasional pop it makes.	[TargetDecayLow] && [DisposalBonesEnabled] && [TargetWillingPrey] == false		
HeadDescription				Demi-Tiger	[TargetName] has a stern looking face with [TargetEyeColor] Feline eyes, having [TargetHairLength] [TargetHairColor] [TargetHairStyle] hair below a pair of flicking [TargetHairColor] Tiger Ears with [TargetCustom-Stripe Color] Stripes.			
HeadOralVore			Demi-Tiger		[ActorName] easily crams their foods head into their maw, lapping and salivating at [TargetName]'s head.			
HeadOralVore				Demi-Tiger	Despite their strong preys thrashing, [ActorName] manages to slowly engulf [TargetName]'s growling head.			
ShoulderOralVore			Demi-Tiger		Continuing to prey on [TargetName], [ActorName]'s bulky feline paws continue to cram them inside their fanged maw.			
TorsoDescription				Demi-Tiger	[TargetName]'s strong upper-half is on full display, their muscular arms turning into [TargetHairColor] fur with [TargetCustom-Stripe Color] stripes past the elbow, their toned abs resting below their barely covered [TargetBoobSize] breasts.	[TargetHasBoobs] && [TargetInUnderwear]		
TorsoDescription				Demi-Tiger	[TargetName]'s [TargetBoobSize] chest gently heaves above their cut abs, their bulky arms turning to [TargetHairColor] fur past their elbow with [TargetCustom-Stripe Color] stripes.	[TargetHasBoobs] && [TargetNude]		
TorsoDescription	100			Demi-Tiger	[TargetName]'s shirt covers their [TargetBoobSize] chest, their arms muscles filling out the sleeves entirely with their [TargetHairColor] fur with [TargetCustom-Stripe Color] stripes on full view, starting past their elbows.	[TargetHasBoobs] && [TargetFullyClothed]		
TorsoDescription	100			Demi-Tiger	[TargetName]'s shirt covers their muscular chest and torso, their bulky arms completely filling out the sleeves, their skin turning to [TargetHairColor] fur with [TargetCustom-Stripe Color] Stripes.	[TargetHasBoobs] == false && [TargetFullyClothed]		
TorsoDescription	0			Demi-Tiger	[TargetName]'s muscular chest and toned abs are on full display along with their muscular arms. Their skin turns to [TargetHairColor] fur with [TargetCustom-Stripe Color] stripes past the elbow.	[TargetHasBoobs] == false		
TorsoOralVore			Demi-Tiger		Tightly gripping their prey, [ActorName] begins funneling their chest down their ravenous maw.			
TorsoOralVore				Demi-Tiger	Fighting against their targets mighty struggling, [ActorName] continues to slowly gulp down [TargetName].			
TorsoCockVore			Demi-Tiger		[ActorName]'s breath steams into the air as they growl and thrust [TargetName] deeper into their cock.			
TorsoCockVore				Demi-Tiger	[ActorName] sighs in relief as their dick pins [TargetName]'s flailing arms to their side, unable to thrash as much.			
WaistDescription				Demi-Tiger	[TargetName]'s bulky legs stretch their pants, their tail having [TargetHairColor] fur and [TargetCustom-Stripe Color] Stripes.	[TargetFullyClothed]		
WaistDescription				Demi-Tiger	A pair of panties clasp tightly to [TargetName]'s wide waist, their legs muscle on full display. Their tail having [TargetHairColor] fur and [TargetCustom-Stripe Color]	[TargetHasVagina] && [TargetInUnderwear]		
WaistDescription				Demi-Tiger	[TargetName]'s hips and slit are in full view above their bulky legs, The tail having [TargetHairColor] fur with [TargetCustom-Stripe Color] stripes.	[TargetNude]		
WaistDescription	100			Demi-Tiger	[TargetName]'s dick makes a visible bulge in their underwear, their bulky legs stretching the fabric as well. Their tail has [TargetHairColor] fur with [TargetCustom-Stripe Color] Stripes.	[TargetHasDick] && [TargetInUnderwear]		
WaistDescription	100			Demi-Tiger	[TargetName]'s [TargetDickSize] dick is open to the air above their muscular legs. Their tail has [TargetHairColor] fur with [TargetCustom-Stripe Color] stripes.	[TargetHasDick] && [TargetNude]		
WaistOralVore			Demi-Tiger		[ActorName] continues to tightly grasp [TargetName]'s waist as they cram them down their gullet.			
WaistOralVore				Demi-Tiger	Despite their preys wonderful flavor, [ActorName] can't risk the target escaping, so they continue to quickly gulp them down.			
LegDescription				Demi-Tiger	[TargetName]'s legs are muscular and covered in [TargetHairColor] fur with [TargetCustom-Stripe Color] stripes.			
LegOralVore			Demi-Tiger		[ActorName] continues to hungrily gulp down their prey, their course tongue lapping at [TargetName]'s legs.			
LegOralVore				Demi-Tiger	[ActorName] would smile if they could, enjoying the feeling of gulping down a Tiger's legs.			
LegCockVore				Demi-Tiger	[ActorName] grins, eagerly humping down their quarry, large amounts of pre-cum soaking and matting [TargetName]'s leg fur.			
LegCockVore			Demi-Tiger		[ActorName] gives a growl of satisfaction, their large paws gripping their foods legs and shoving them deeper into their cock.			
FeetOralVore				Demi-Tiger	Finally gulping down the Tiger's wide paws, [ActorName] sighs happily as their belly massively expands to contain the Tiger Meal.			
FeetOralVore			Demi-Tiger		Taking one large paw and pushing down, [ActorName] fully seals their meal inside them with a quiet sigh of satisfaction.			
FeetCockVore				Demi-Tiger	[ActorName] teasingly waves bye to the Tigers clenching paws as they slip into their cock.			
FeetCockVore			Demi-Tiger		[ActorName] quietly speaks to their prey as they push the feet into their dick, "Just... Prey now...."			
BellySizeDescription	90		Demi-Tiger		[ActorName] seems entirely unbothered by the 4 or so people struggling for their life inside their crushing gut, being so tall their bulging belly doesn't even touch the floor.	s.Actor.VoreController.BellySize() > 3.5f		
BellySizeDescription	80		Demi-Tiger		Despite the many kicks and stretching struggles from the numerous prey within them, [ActorName] seems to not be bothered at all.	s.Actor.VoreController.BellySize() > 3		
BellySizeDescription	70		Demi-Tiger		[ActorName] squeezes and their greatly bulging gut, tail swishing gleefully from the 3 or so prey fighting within.	s.Actor.VoreController.BellySize() > 2.5f		
BellySizeDescription	60		Demi-Tiger		Two to three bodies can be seen tightly compacted together by [ActorName]'s gut, their struggles being hardly evident against the crushing depths.	s.Actor.VoreController.BellySize() > 2		
BellySizeDescription	50		Demi-Tiger		[ActorName] just calmly yawns as they feel their gut struggle and kick, it's hard to tell if there's 1 or 2 people inside.	s.Actor.VoreController.BellySize() > 1.25f		
BellySizeDescription	40		Demi-Tiger		A persons curled up outline can easily be seen inside [ActorName]'s gut, their belly compacting and crushing it's prey.	s.Actor.VoreController.BellySize() > .95f		
BellySizeDescription	30		Demi-Tiger		Many gurgles and groans can be heard from [ActorName]'s rounded and smaller gut, it happily breaking it's meal down.	s.Actor.VoreController.BellySize() > .75f		
BellySizeDescription	20		Demi-Tiger		Despite still being the size of two basketballs, [ActorName]'s gut is entirely round, owing to it's strength and efficient digestion.	s.Actor.VoreController.BellySize() > .5f		
BellySizeDescription	10		Demi-Tiger		One could maybe hear [ActorName] purr as they rub their sloshing and broiling gut, it only being as big as a basketball.	s.Actor.VoreController.BellySize() > .25f		
BellySizeDescription	0		Demi-Tiger		There's just barely a bulge on [ActorName]'s chiseled gut, their abs being visible again now.			
BellySizeDescription	30		Demi-Tiger		Besides the gurgling and barely audibly sloshing, there's the occasional pop of bone as [ActorName]'s gut works to melt it's inactive prey.	s.Actor.VoreController.BellySize() > .75f && [DisposalBonesEnabled]		
BellySizeDescription	20		Demi-Tiger		There's a number of bones visible through [ActorName]'s gut, some vanishing with an audible crack as the Tiger rubs their swollen midsection.	s.Actor.VoreController.BellySize() > .5f && [DisposalBonesEnabled]		
BellySizeDescription	10		Demi-Tiger		Being roughly the size of two Basketballs, one can see most of the bones that have made it this far inside the Tiger's hellish gut.	s.Actor.VoreController.BellySize() > .25f && [DisposalBonesEnabled]		
BellySizeDescription	0		Demi-Tiger		There's pretty much nothing left but bone and a little mush by now inside the sloshing and gurgling gut of [ActorName].	[DisposalBonesEnabled]		
BallsSizeDescription	90		Demi-Tiger		[ActorName] seems to not be hindered at all by their massive sack, a handful of people's struggles being visible through the taut flesh.	s.Actor.VoreController.BallsSize() > 3.5f		
BallsSizeDescription	80		Demi-Tiger		Just barely swaying above the ground, [ActorName]'s scrotum shakes from it's many preys struggles, even making their pred blush.	s.Actor.VoreController.BallsSize() > 3		
BallsSizeDescription	70		Demi-Tiger		There's at least 4 people inside [ActorName]'s sack, the Tiger only blushing from their prey's efforts at escape.	s.Actor.VoreController.BallsSize() > 2.5f		
BallsSizeDescription	60		Demi-Tiger		One can see about 3 people struggling inside the Tiger's sack, [ActorName] making sure to clench the prey between their thighs as well.	s.Actor.VoreController.BallsSize() > 2		
BallsSizeDescription	50		Demi-Tiger		The two prey within [ActorName]'s sack almost look like an impromptu pair of testicles, being tightly crushed by the scrotums strength.	s.Actor.VoreController.BallsSize() > 1.25f		
BallsSizeDescription	40		Demi-Tiger		[ActorName] clenches their thighs on occasion, doubling the crushing force the prey is feeling inside their distended ballsack.	s.Actor.VoreController.BallsSize() > .95f		
BallsSizeDescription	30		Demi-Tiger		There's hardly any imprints from their prey already, the crushing force and musky tiger cum of [ActorName]'s sack gurgling it's food quickly.	s.Actor.VoreController.BallsSize() > .75f		
BallsSizeDescription	20		Demi-Tiger		Their sack entirely round, [ActorName] smiles to themselves as they tenderly squeeze and feel their sloshing and gurgling scrotum.	s.Actor.VoreController.BallsSize() > .5f		
BallsSizeDescription	10		Demi-Tiger		Being roughly the size of two basketballs, there's not much left of their prey inside [ActorName]'s ravenous ballsack.	s.Actor.VoreController.BallsSize() > .25f		
BallsSizeDescription	0		Demi-Tiger		Only drooping to roughly halfway down their thighs, [ActorName]'s scrotum is close to being done with the sloshing spunk that's left of it's contents.			
BallsSizeDescription	30		Demi-Tiger		Being mostly round, one can see the occasional imprint of bone inside [ActorName]'s balls, being a little smaller than a person.	s.Actor.VoreController.BallsSize() > .75f && [DisposalBonesEnabled]		
BallsSizeDescription	20		Demi-Tiger		With most of the prey melted, their bones are much more visible now, clattering a little inside the Tiger's sloshing scrotum.	s.Actor.VoreController.BallsSize() > .5f && [DisposalBonesEnabled]		
BallsSizeDescription	10		Demi-Tiger		[ActorName] doesn't seem to care at all when a loud crack erupts from their gurgling sack, uncaring that the many bones of their expired prey are visible.	s.Actor.VoreController.BallsSize() > .25f && [DisposalBonesEnabled]		
BallsSizeDescription	0		Demi-Tiger		Amidst the sloshing, one can see almost every major bone the prey had, being tightly clenched amidst musky tiger cum inside the ballsack.	[DisposalBonesEnabled]		
DeepKiss			Demi-Tiger		[ActorName] grabs [TargetName] and tightly squeezes them close, deeply kissing them.			
BlowJob				Demi-Tiger	[TargetName] yelps as [ActorName] grabs their waist and brings their erect cock to their mouth, tenderly lapping and sucking at the [TargetDickSize] cock.			